Cleaning up Junior Race Week
…
library(tidyverse)
library(here)

Import and inspect

Note: After doing and writing all of this up, I found a different data source that completely changed how I would do this the next time!

Because each class (420 Champ, 420 Green, Laser, Opti Champ, and Opti Green) has its own structure (i.e.the column headers are not the same), Ill have to deal with them one by one. However, Ill try to use strategies that are generalizable to the other datasets.

mjrw_2019_420_champ <- read_csv(here::here("data", "raw", "mjrw_2019_420_champ.csv"), 
    col_types = cols(Position = col_integer()))

mjrw_2019_420_champ

## # A tibble: 76 x 12
##    Class Position `Sail Number` `Sailor(s)` `Boat Name/Club` Points R1   
##    <chr>    <int> <chr>         <chr>       <chr>             <dbl> <chr>
##  1 420         1 <NA>          Brooks Reed Hingham Yacht C      8 1    
##  2 420        NA USA 871       Trent Hess <NA>                 NA <NA> 
##  3 420         2 <NA>          Sawyer Reed Hingham Yacht C     20 2    
##  4 420        NA USA 8241      Andrew Eng <NA>                 NA <NA> 
##  5 420         3 <NA>          James Know Buck's Harbor Y     21 5    
##  6 420        NA USA 1905      Sloan Phil <NA>                 NA <NA> 
##  7 420         4 <NA>          Ian McCaff Kiss My Transom      22 3    
##  8 420        NA USA 2296      Katy Benagh Sandy Bay Yacht     NA <NA> 
##  9 420         5 <NA>          Sandy Yale  Portland Yacht      28 8    
## 10 420        NA USA 6906      Elsa Dean- <NA>                 NA <NA> 
## #  with 66 more rows, and 5 more variables: R2 <chr>, R3 <chr>, R4 <chr>,
## #   R5 <chr>, R6 <chr>
…
The names of the home club for groups without a boat is with their first sailor (sailor_count == 1):

no_boats_clubs <- mjrw_420_champ %>%
  filter(Position %in% no_boats$Position,
         sailor_count == 1) %>%
  rename(Club = `Boat Name/Club`)

no_boats_clubs

## # A tibble: 34 x 14
##    rowid Class Position `Sail Number` `Sailor(s)` Club  Points R1    R2   
##    <int> <chr>    <int> <chr>         <chr>       <chr>  <dbl> <chr> <chr>
##  1     1 420         1 USA 871       Brooks Reed Hing      8 1     1    
##  2     3 420         2 USA 8241      Sawyer Reed Hing     20 2     3    
##  3     5 420         3 USA 1905      James Know Buck     21 5     7    
##  4     9 420         5 USA 6906      Sandy Yale  Port     28 8     2    
##  5    11 420         6 USA 10        Gunnar Nee  Coha     28 4     4    
##  6    13 420         7 USA 8497      Porter Bell Hing     30 12    -13  
##  7    15 420         8 USA 7273      Ben Trotsky Sand     34 6     6    
##  8    17 420         9 USA 8696      Nathan Sel Harr     44 11    14   
##  9    19 420        10 USA 781       Ashley Hog Pleo     53 15    11   
## 10    21 420        11 USA 6905      Samuel Roo Port     62 -29   16   
## #  with 24 more rows, and 5 more variables: R3 <chr>, R4 <chr>, R5 <chr>,
## #   R6 <chr>, sailor_count <int>
…
We can now isolate this in a lookup table of sorts by combining our Club and Boat Name data for each group. Since most groups do not have a boat name, most of the Boat Name observations will be NA.

info_by_sails <- sails_clubs %>%
  left_join(sails_names)

## Joining, by = c("Position", "Sail Number")

info_by_sails

## # A tibble: 38 x 4
##    Position `Sail Number` Club                     `Boat Name`    
##       <int> <chr>         <chr>                    <chr>          
##  1        1 USA 871       Hingham Yacht Club       <NA>           
##  2        2 USA 8241      Hingham Yacht Club       <NA>           
##  3        3 USA 1905      Buck's Harbor Yacht Club <NA>           
##  4        4 USA 2296      Sandy Bay Yacht Club     Kiss My Transom
##  5        5 USA 6906      Portland Yacht Club      <NA>           
##  6        6 USA 10        Cohasset Yacht Club      <NA>           
##  7        7 USA 8497      Hingham Yacht Club       <NA>           
##  8        8 USA 7273      Sandy Bay Yacht Club     <NA>           
##  9        9 USA 8696      Harraseeket Yacht Club   <NA>           
## 10       10 USA 781       Pleon YC                 <NA>           
## #  with 28 more rows
Put our boats and sailors back together

Umm, lets see. If all went according to plan, we should be able to join the Boat Name and Club to our modified data by Position and Sail Number. We can then get rid of pesky Boat Name/Club, and well rename Sailor(s) to singular.

clean_mjrw_420_champ <- mjrw_420_champ %>%
  left_join(info_by_sails) %>%
  select(-`Boat Name/Club`) %>%
  rename(Sailor = `Sailor(s)`) %>%
  select(1:Sailor, `Boat Name`, Club, everything())

## Joining, by = c("Position", "Sail Number")

clean_mjrw_420_champ

## # A tibble: 76 x 15
##    rowid Class Position `Sail Number` Sailor `Boat Name` Club  Points R1   
##    <int> <chr>    <int> <chr>         <chr>  <chr>       <chr>  <dbl> <chr>
##  1     1 420         1 USA 871       Brook <NA>        Hing      8 1    
##  2     2 420         1 USA 871       Trent <NA>        Hing      8 1    
##  3     3 420         2 USA 8241      Sawye <NA>        Hing     20 2    
##  4     4 420         2 USA 8241      Andre <NA>        Hing     20 2    
##  5     5 420         3 USA 1905      James <NA>        Buck     21 5    
##  6     6 420         3 USA 1905      Sloan <NA>        Buck     21 5    
##  7     7 420         4 USA 2296      Ian M Kiss My Tr Sand     22 3    
##  8     8 420         4 USA 2296      Katy  Kiss My Tr Sand     22 3    
##  9     9 420         5 USA 6906      Sandy <NA>        Port     28 8    
## 10    10 420         5 USA 6906      Elsa  <NA>        Port     28 8    
## #  with 66 more rows, and 6 more variables: R2 <chr>, R3 <chr>, R4 <chr>,
## #   R5 <chr>, R6 <chr>, sailor_count <int>
…
## Parsed with column specification:
## cols(
##   `Sail Number` = col_character(),
##   Sailor = col_character(),
##   `Boat Name` = col_character(),
##   `Club Name` = col_character()
## )

clean_mjrw_420_green %>%
  left_join(all_classes)

## Joining, by = c("Sail Number", "Sailor", "Boat Name")

## # A tibble: 70 x 15
##    rowid Class Position `Sail Number` Sailor `Boat Name` Club  Points R1   
##    <int> <chr>    <int> <chr>         <chr>  <chr>       <chr>  <dbl> <chr>
##  1     1 420         1 USA 1247      Max W <NA>        Pleon     24 2    
##  2     2 420         1 USA 1247      Ryan  <NA>        Pleon     24 2    
##  3     3 420         2 USA 8767      Charl <NA>        MSA       25 11   
##  4     4 420         2 USA 8767      Sam P <NA>        MSA       25 11   
##  5     5 420         3 USA 8244      Fish  <NA>        Hing     25 6    
##  6     6 420         3 USA 8244      Cathe <NA>        Hing     25 6    
##  7     7 420         4 USA 8240      Will  <NA>        Hing     26 3    
##  8     8 420         4 USA 8240      Wilso <NA>        Hing     26 3    
##  9     9 420         5 USA 8243      Willi <NA>        Hing     31 4    
## 10    10 420         5 USA 8243      Charl <NA>        Hing     31 4    
## #  with 60 more rows, and 6 more variables: R2 <chr>, R3 <chr>, R4 <chr>,
## #   R5 <chr>, sailor_count <int>, `Club Name` <chr>
…
