…
## Import and inspect

Because each class (420 Champ, 420 Green, Laser, Opti Champ, and Opti Green) has its own structure (i.e. the column headers are not the same), I'll deal with them one by one.


```r
mjrw_2019_420_champ <- read_csv(here::here("data", "raw", "mjrw_2019_420_champ.csv"), 
    col_types = cols(Position = col_integer()))

mjrw_2019_420_champ
```

```
## # A tibble: 76 x 12
##    Class Position `Sail Number` `Sailor(s)` `Boat Name/Club` Points R1   
##    <chr>    <int> <chr>         <chr>       <chr>             <dbl> <chr>
##  1 420 …        1 <NA>          Brooks Reed Hingham Yacht C…      8 1    
##  2 420 …       NA USA 871       Trent Hess… <NA>                 NA <NA> 
##  3 420 …        2 <NA>          Sawyer Reed Hingham Yacht C…     20 2    
##  4 420 …       NA USA 8241      Andrew Eng… <NA>                 NA <NA> 
##  5 420 …        3 <NA>          James Know… Buck's Harbor Y…     21 5    
##  6 420 …       NA USA 1905      Sloan Phil… <NA>                 NA <NA> 
##  7 420 …        4 <NA>          Ian McCaff… Kiss My Transom      22 3    
##  8 420 …       NA USA 2296      Katy Benagh Sandy Bay Yacht…     NA <NA> 
##  9 420 …        5 <NA>          Sandy Yale  Portland Yacht …     28 8    
## 10 420 …       NA USA 6906      Elsa Dean-… <NA>                 NA <NA> 
## # … with 66 more rows, and 5 more variables: R2 <chr>, R3 <chr>, R4 <chr>,
## #   R5 <chr>, R6 <chr>
```
…
